-- Merging decision tree log ---
manifest
ADDED from D:\Unity Projects\Android projects for Fdroid\Ludo Party\src\main\AndroidManifest.xml:2:1-25:12
INJECTED from D:\Unity Projects\Android projects for Fdroid\Ludo Party\src\main\AndroidManifest.xml:2:1-25:12
INJECTED from D:\Unity Projects\Android projects for Fdroid\Ludo Party\src\main\AndroidManifest.xml:2:1-25:12
INJECTED from D:\Unity Projects\Android projects for Fdroid\Ludo Party\src\main\AndroidManifest.xml:2:1-25:12
MERGED from [com.google.games:gpgs-plugin-support:0.9.62] C:\Users\pc\.gradle\caches\transforms-3\432b0ec1f18b32bfd31861d3e8b2dd0d\transformed\gpgs-plugin-support-0.9.62\AndroidManifest.xml:2:1-11:12
MERGED from [:billing-3.0.3:] C:\Users\pc\.gradle\caches\transforms-3\219ea133ce10f99edc54b4d59389b9cb\transformed\billing-3.0.3\AndroidManifest.xml:2:1-24:12
MERGED from [:common:] C:\Users\pc\.gradle\caches\transforms-3\3148d98665ae6d9668eb89e5cf224da5\transformed\common\AndroidManifest.xml:2:1-12:12
MERGED from [:GooglePlayGamesManifest.plugin] D:\Unity Projects\Android projects for Fdroid\Ludo Party\GooglePlayGamesManifest.plugin\build\intermediates\merged_manifest\debug\AndroidManifest.xml:6:1-32:12
MERGED from [com.google.android.gms:play-services-games:16.0.0] C:\Users\pc\.gradle\caches\transforms-3\91e87fe31949ab73bb847eaa92995a14\transformed\play-services-games-16.0.0\AndroidManifest.xml:17:1-24:12
MERGED from [com.google.android.gms:play-services-auth:16.0.1] C:\Users\pc\.gradle\caches\transforms-3\c175320899735e3330c5f4b73eaf697d\transformed\play-services-auth-16.0.1\AndroidManifest.xml:17:1-39:12
MERGED from [com.google.android.gms:play-services-nearby:16.0.0] C:\Users\pc\.gradle\caches\transforms-3\c417638a9bfe9291233fe3be366fffad\transformed\play-services-nearby-16.0.0\AndroidManifest.xml:2:1-11:12
MERGED from [com.google.android.gms:play-services-drive:16.0.0] C:\Users\pc\.gradle\caches\transforms-3\86a2d1de743a8f92991b9dcea95ecbf1\transformed\play-services-drive-16.0.0\AndroidManifest.xml:17:1-24:12
MERGED from [com.google.android.gms:play-services-auth-api-phone:16.0.0] C:\Users\pc\.gradle\caches\transforms-3\4d5ee96b810101f617bc8f4608f3408e\transformed\play-services-auth-api-phone-16.0.0\AndroidManifest.xml:2:1-7:12
MERGED from [com.google.android.gms:play-services-auth-base:16.0.0] C:\Users\pc\.gradle\caches\transforms-3\f63e8990d47166a20050578f0f58fa8b\transformed\play-services-auth-base-16.0.0\AndroidManifest.xml:2:1-7:12
MERGED from [com.google.android.gms:play-services-base:16.0.1] C:\Users\pc\.gradle\caches\transforms-3\59076c976622b991b8501737f8258b8b\transformed\play-services-base-16.0.1\AndroidManifest.xml:17:1-29:12
MERGED from [com.google.android.gms:play-services-tasks:16.0.1] C:\Users\pc\.gradle\caches\transforms-3\bc200d5caf8ffdead59faf10abd23d5f\transformed\play-services-tasks-16.0.1\AndroidManifest.xml:2:1-9:12
MERGED from [com.google.android.gms:play-services-basement:16.0.1] C:\Users\pc\.gradle\caches\transforms-3\e7f44bba6e2eb6ee24399260862692e5\transformed\play-services-basement-16.0.1\AndroidManifest.xml:17:1-28:12
MERGED from [com.android.support:support-v4:26.0.0] C:\Users\pc\.gradle\caches\transforms-3\dba88b0265daee03f7716c299f9ec58e\transformed\support-v4-26.0.0\AndroidManifest.xml:17:1-31:12
MERGED from [com.android.support:support-media-compat:26.0.0] C:\Users\pc\.gradle\caches\transforms-3\7a3b5fa76290974c098427378edf64db\transformed\support-media-compat-26.0.0\AndroidManifest.xml:17:1-31:12
MERGED from [com.android.support:support-fragment:26.0.0] C:\Users\pc\.gradle\caches\transforms-3\5dde7106b6106a92ced0f5164778db24\transformed\support-fragment-26.0.0\AndroidManifest.xml:17:1-31:12
MERGED from [com.android.support:support-core-utils:26.0.0] C:\Users\pc\.gradle\caches\transforms-3\648ad88983f8a2f1bf4d4df53bbd9e24\transformed\support-core-utils-26.0.0\AndroidManifest.xml:17:1-31:12
MERGED from [com.android.support:support-core-ui:26.0.0] C:\Users\pc\.gradle\caches\transforms-3\569b98667c7cbe0f6548f026b015c30c\transformed\support-core-ui-26.0.0\AndroidManifest.xml:17:1-31:12
MERGED from [com.android.support:support-compat:26.0.0] C:\Users\pc\.gradle\caches\transforms-3\b0e888e6a89aea7d73fa7dcacb5f7ae6\transformed\support-compat-26.0.0\AndroidManifest.xml:17:1-31:12
INJECTED from D:\Unity Projects\Android projects for Fdroid\Ludo Party\src\main\AndroidManifest.xml:2:1-25:12
INJECTED from D:\Unity Projects\Android projects for Fdroid\Ludo Party\src\main\AndroidManifest.xml:2:1-25:12
INJECTED from D:\Unity Projects\Android projects for Fdroid\Ludo Party\src\main\AndroidManifest.xml:2:1-25:12
	package
		ADDED from D:\Unity Projects\Android projects for Fdroid\Ludo Party\src\main\AndroidManifest.xml:2:70-100
		INJECTED from D:\Unity Projects\Android projects for Fdroid\Ludo Party\src\main\AndroidManifest.xml
		INJECTED from D:\Unity Projects\Android projects for Fdroid\Ludo Party\src\main\AndroidManifest.xml
	android:versionName
		INJECTED from D:\Unity Projects\Android projects for Fdroid\Ludo Party\src\main\AndroidManifest.xml
		ADDED from D:\Unity Projects\Android projects for Fdroid\Ludo Party\src\main\AndroidManifest.xml:2:1-25:12
		INJECTED from D:\Unity Projects\Android projects for Fdroid\Ludo Party\src\main\AndroidManifest.xml
	xmlns:tools
		ADDED from D:\Unity Projects\Android projects for Fdroid\Ludo Party\src\main\AndroidManifest.xml:2:101-147
	android:versionCode
		INJECTED from D:\Unity Projects\Android projects for Fdroid\Ludo Party\src\main\AndroidManifest.xml
		ADDED from D:\Unity Projects\Android projects for Fdroid\Ludo Party\src\main\AndroidManifest.xml:2:1-25:12
		INJECTED from D:\Unity Projects\Android projects for Fdroid\Ludo Party\src\main\AndroidManifest.xml
	xmlns:android
		ADDED from D:\Unity Projects\Android projects for Fdroid\Ludo Party\src\main\AndroidManifest.xml:2:11-69
	android:installLocation
		ADDED from D:\Unity Projects\Android projects for Fdroid\Ludo Party\src\main\AndroidManifest.xml:2:148-178
supports-screens
ADDED from D:\Unity Projects\Android projects for Fdroid\Ludo Party\src\main\AndroidManifest.xml:3:3-163
	android:largeScreens
		ADDED from D:\Unity Projects\Android projects for Fdroid\Ludo Party\src\main\AndroidManifest.xml:3:78-105
	android:smallScreens
		ADDED from D:\Unity Projects\Android projects for Fdroid\Ludo Party\src\main\AndroidManifest.xml:3:21-48
	android:normalScreens
		ADDED from D:\Unity Projects\Android projects for Fdroid\Ludo Party\src\main\AndroidManifest.xml:3:49-77
	android:xlargeScreens
		ADDED from D:\Unity Projects\Android projects for Fdroid\Ludo Party\src\main\AndroidManifest.xml:3:106-134
	android:anyDensity
		ADDED from D:\Unity Projects\Android projects for Fdroid\Ludo Party\src\main\AndroidManifest.xml:3:135-160
application
ADDED from D:\Unity Projects\Android projects for Fdroid\Ludo Party\src\main\AndroidManifest.xml:4:3-18:17
MERGED from [com.google.games:gpgs-plugin-support:0.9.62] C:\Users\pc\.gradle\caches\transforms-3\432b0ec1f18b32bfd31861d3e8b2dd0d\transformed\gpgs-plugin-support-0.9.62\AndroidManifest.xml:9:5-20
MERGED from [com.google.games:gpgs-plugin-support:0.9.62] C:\Users\pc\.gradle\caches\transforms-3\432b0ec1f18b32bfd31861d3e8b2dd0d\transformed\gpgs-plugin-support-0.9.62\AndroidManifest.xml:9:5-20
MERGED from [:billing-3.0.3:] C:\Users\pc\.gradle\caches\transforms-3\219ea133ce10f99edc54b4d59389b9cb\transformed\billing-3.0.3\AndroidManifest.xml:12:5-22:19
MERGED from [:billing-3.0.3:] C:\Users\pc\.gradle\caches\transforms-3\219ea133ce10f99edc54b4d59389b9cb\transformed\billing-3.0.3\AndroidManifest.xml:12:5-22:19
MERGED from [:common:] C:\Users\pc\.gradle\caches\transforms-3\3148d98665ae6d9668eb89e5cf224da5\transformed\common\AndroidManifest.xml:9:5-10:19
MERGED from [:common:] C:\Users\pc\.gradle\caches\transforms-3\3148d98665ae6d9668eb89e5cf224da5\transformed\common\AndroidManifest.xml:9:5-10:19
MERGED from [:GooglePlayGamesManifest.plugin] D:\Unity Projects\Android projects for Fdroid\Ludo Party\GooglePlayGamesManifest.plugin\build\intermediates\merged_manifest\debug\AndroidManifest.xml:15:5-30:19
MERGED from [:GooglePlayGamesManifest.plugin] D:\Unity Projects\Android projects for Fdroid\Ludo Party\GooglePlayGamesManifest.plugin\build\intermediates\merged_manifest\debug\AndroidManifest.xml:15:5-30:19
MERGED from [com.google.android.gms:play-services-games:16.0.0] C:\Users\pc\.gradle\caches\transforms-3\91e87fe31949ab73bb847eaa92995a14\transformed\play-services-games-16.0.0\AndroidManifest.xml:22:5-20
MERGED from [com.google.android.gms:play-services-games:16.0.0] C:\Users\pc\.gradle\caches\transforms-3\91e87fe31949ab73bb847eaa92995a14\transformed\play-services-games-16.0.0\AndroidManifest.xml:22:5-20
MERGED from [com.google.android.gms:play-services-auth:16.0.1] C:\Users\pc\.gradle\caches\transforms-3\c175320899735e3330c5f4b73eaf697d\transformed\play-services-auth-16.0.1\AndroidManifest.xml:22:5-37:19
MERGED from [com.google.android.gms:play-services-auth:16.0.1] C:\Users\pc\.gradle\caches\transforms-3\c175320899735e3330c5f4b73eaf697d\transformed\play-services-auth-16.0.1\AndroidManifest.xml:22:5-37:19
MERGED from [com.google.android.gms:play-services-nearby:16.0.0] C:\Users\pc\.gradle\caches\transforms-3\c417638a9bfe9291233fe3be366fffad\transformed\play-services-nearby-16.0.0\AndroidManifest.xml:9:5-20
MERGED from [com.google.android.gms:play-services-nearby:16.0.0] C:\Users\pc\.gradle\caches\transforms-3\c417638a9bfe9291233fe3be366fffad\transformed\play-services-nearby-16.0.0\AndroidManifest.xml:9:5-20
MERGED from [com.google.android.gms:play-services-drive:16.0.0] C:\Users\pc\.gradle\caches\transforms-3\86a2d1de743a8f92991b9dcea95ecbf1\transformed\play-services-drive-16.0.0\AndroidManifest.xml:22:5-20
MERGED from [com.google.android.gms:play-services-drive:16.0.0] C:\Users\pc\.gradle\caches\transforms-3\86a2d1de743a8f92991b9dcea95ecbf1\transformed\play-services-drive-16.0.0\AndroidManifest.xml:22:5-20
MERGED from [com.google.android.gms:play-services-base:16.0.1] C:\Users\pc\.gradle\caches\transforms-3\59076c976622b991b8501737f8258b8b\transformed\play-services-base-16.0.1\AndroidManifest.xml:22:5-27:19
MERGED from [com.google.android.gms:play-services-base:16.0.1] C:\Users\pc\.gradle\caches\transforms-3\59076c976622b991b8501737f8258b8b\transformed\play-services-base-16.0.1\AndroidManifest.xml:22:5-27:19
MERGED from [com.google.android.gms:play-services-tasks:16.0.1] C:\Users\pc\.gradle\caches\transforms-3\bc200d5caf8ffdead59faf10abd23d5f\transformed\play-services-tasks-16.0.1\AndroidManifest.xml:7:5-20
MERGED from [com.google.android.gms:play-services-tasks:16.0.1] C:\Users\pc\.gradle\caches\transforms-3\bc200d5caf8ffdead59faf10abd23d5f\transformed\play-services-tasks-16.0.1\AndroidManifest.xml:7:5-20
MERGED from [com.google.android.gms:play-services-basement:16.0.1] C:\Users\pc\.gradle\caches\transforms-3\e7f44bba6e2eb6ee24399260862692e5\transformed\play-services-basement-16.0.1\AndroidManifest.xml:22:5-26:19
MERGED from [com.google.android.gms:play-services-basement:16.0.1] C:\Users\pc\.gradle\caches\transforms-3\e7f44bba6e2eb6ee24399260862692e5\transformed\play-services-basement-16.0.1\AndroidManifest.xml:22:5-26:19
MERGED from [com.android.support:support-v4:26.0.0] C:\Users\pc\.gradle\caches\transforms-3\dba88b0265daee03f7716c299f9ec58e\transformed\support-v4-26.0.0\AndroidManifest.xml:25:5-29:19
MERGED from [com.android.support:support-v4:26.0.0] C:\Users\pc\.gradle\caches\transforms-3\dba88b0265daee03f7716c299f9ec58e\transformed\support-v4-26.0.0\AndroidManifest.xml:25:5-29:19
MERGED from [com.android.support:support-media-compat:26.0.0] C:\Users\pc\.gradle\caches\transforms-3\7a3b5fa76290974c098427378edf64db\transformed\support-media-compat-26.0.0\AndroidManifest.xml:25:5-29:19
MERGED from [com.android.support:support-media-compat:26.0.0] C:\Users\pc\.gradle\caches\transforms-3\7a3b5fa76290974c098427378edf64db\transformed\support-media-compat-26.0.0\AndroidManifest.xml:25:5-29:19
MERGED from [com.android.support:support-fragment:26.0.0] C:\Users\pc\.gradle\caches\transforms-3\5dde7106b6106a92ced0f5164778db24\transformed\support-fragment-26.0.0\AndroidManifest.xml:25:5-29:19
MERGED from [com.android.support:support-fragment:26.0.0] C:\Users\pc\.gradle\caches\transforms-3\5dde7106b6106a92ced0f5164778db24\transformed\support-fragment-26.0.0\AndroidManifest.xml:25:5-29:19
MERGED from [com.android.support:support-core-utils:26.0.0] C:\Users\pc\.gradle\caches\transforms-3\648ad88983f8a2f1bf4d4df53bbd9e24\transformed\support-core-utils-26.0.0\AndroidManifest.xml:25:5-29:19
MERGED from [com.android.support:support-core-utils:26.0.0] C:\Users\pc\.gradle\caches\transforms-3\648ad88983f8a2f1bf4d4df53bbd9e24\transformed\support-core-utils-26.0.0\AndroidManifest.xml:25:5-29:19
MERGED from [com.android.support:support-core-ui:26.0.0] C:\Users\pc\.gradle\caches\transforms-3\569b98667c7cbe0f6548f026b015c30c\transformed\support-core-ui-26.0.0\AndroidManifest.xml:25:5-29:19
MERGED from [com.android.support:support-core-ui:26.0.0] C:\Users\pc\.gradle\caches\transforms-3\569b98667c7cbe0f6548f026b015c30c\transformed\support-core-ui-26.0.0\AndroidManifest.xml:25:5-29:19
MERGED from [com.android.support:support-compat:26.0.0] C:\Users\pc\.gradle\caches\transforms-3\b0e888e6a89aea7d73fa7dcacb5f7ae6\transformed\support-compat-26.0.0\AndroidManifest.xml:25:5-29:19
MERGED from [com.android.support:support-compat:26.0.0] C:\Users\pc\.gradle\caches\transforms-3\b0e888e6a89aea7d73fa7dcacb5f7ae6\transformed\support-compat-26.0.0\AndroidManifest.xml:25:5-29:19
	android:label
		ADDED from D:\Unity Projects\Android projects for Fdroid\Ludo Party\src\main\AndroidManifest.xml:4:90-122
	android:icon
		ADDED from D:\Unity Projects\Android projects for Fdroid\Ludo Party\src\main\AndroidManifest.xml:4:58-89
	android:theme
		ADDED from D:\Unity Projects\Android projects for Fdroid\Ludo Party\src\main\AndroidManifest.xml:4:16-57
activity#com.Mobaso.ludoparty.UnityPlayerActivity
ADDED from D:\Unity Projects\Android projects for Fdroid\Ludo Party\src\main\AndroidManifest.xml:5:5-13:16
	android:screenOrientation
		ADDED from D:\Unity Projects\Android projects for Fdroid\Ludo Party\src\main\AndroidManifest.xml:5:48-91
	android:label
		ADDED from D:\Unity Projects\Android projects for Fdroid\Ludo Party\src\main\AndroidManifest.xml:5:15-47
	android:launchMode
		ADDED from D:\Unity Projects\Android projects for Fdroid\Ludo Party\src\main\AndroidManifest.xml:5:92-123
	android:hardwareAccelerated
		ADDED from D:\Unity Projects\Android projects for Fdroid\Ludo Party\src\main\AndroidManifest.xml:5:306-341
	android:exported
		ADDED from D:\Unity Projects\Android projects for Fdroid\Ludo Party\src\main\AndroidManifest.xml:6:9-32
	android:configChanges
		ADDED from D:\Unity Projects\Android projects for Fdroid\Ludo Party\src\main\AndroidManifest.xml:5:124-305
	android:name
		ADDED from D:\Unity Projects\Android projects for Fdroid\Ludo Party\src\main\AndroidManifest.xml:5:342-397
intent-filter#action:name:android.intent.action.MAIN+category:name:android.intent.category.LAUNCHER
ADDED from D:\Unity Projects\Android projects for Fdroid\Ludo Party\src\main\AndroidManifest.xml:7:7-10:23
action#android.intent.action.MAIN
ADDED from D:\Unity Projects\Android projects for Fdroid\Ludo Party\src\main\AndroidManifest.xml:8:9-61
	android:name
		ADDED from D:\Unity Projects\Android projects for Fdroid\Ludo Party\src\main\AndroidManifest.xml:8:17-58
category#android.intent.category.LAUNCHER
ADDED from D:\Unity Projects\Android projects for Fdroid\Ludo Party\src\main\AndroidManifest.xml:9:9-69
	android:name
		ADDED from D:\Unity Projects\Android projects for Fdroid\Ludo Party\src\main\AndroidManifest.xml:9:19-66
meta-data#unityplayer.UnityActivity
ADDED from D:\Unity Projects\Android projects for Fdroid\Ludo Party\src\main\AndroidManifest.xml:11:7-82
	android:value
		ADDED from D:\Unity Projects\Android projects for Fdroid\Ludo Party\src\main\AndroidManifest.xml:11:59-79
	android:name
		ADDED from D:\Unity Projects\Android projects for Fdroid\Ludo Party\src\main\AndroidManifest.xml:11:18-58
meta-data#android.notch_support
ADDED from D:\Unity Projects\Android projects for Fdroid\Ludo Party\src\main\AndroidManifest.xml:12:7-78
	android:value
		ADDED from D:\Unity Projects\Android projects for Fdroid\Ludo Party\src\main\AndroidManifest.xml:12:55-75
	android:name
		ADDED from D:\Unity Projects\Android projects for Fdroid\Ludo Party\src\main\AndroidManifest.xml:12:18-54
meta-data#unity.build-id
ADDED from D:\Unity Projects\Android projects for Fdroid\Ludo Party\src\main\AndroidManifest.xml:14:5-101
	android:value
		ADDED from D:\Unity Projects\Android projects for Fdroid\Ludo Party\src\main\AndroidManifest.xml:14:46-98
	android:name
		ADDED from D:\Unity Projects\Android projects for Fdroid\Ludo Party\src\main\AndroidManifest.xml:14:16-45
meta-data#unity.splash-mode
ADDED from D:\Unity Projects\Android projects for Fdroid\Ludo Party\src\main\AndroidManifest.xml:15:5-69
	android:value
		ADDED from D:\Unity Projects\Android projects for Fdroid\Ludo Party\src\main\AndroidManifest.xml:15:49-66
	android:name
		ADDED from D:\Unity Projects\Android projects for Fdroid\Ludo Party\src\main\AndroidManifest.xml:15:16-48
meta-data#unity.splash-enable
ADDED from D:\Unity Projects\Android projects for Fdroid\Ludo Party\src\main\AndroidManifest.xml:16:5-74
	android:value
		ADDED from D:\Unity Projects\Android projects for Fdroid\Ludo Party\src\main\AndroidManifest.xml:16:51-71
	android:name
		ADDED from D:\Unity Projects\Android projects for Fdroid\Ludo Party\src\main\AndroidManifest.xml:16:16-50
meta-data#notch.config
ADDED from D:\Unity Projects\Android projects for Fdroid\Ludo Party\src\main\AndroidManifest.xml:17:5-81
	android:value
		ADDED from D:\Unity Projects\Android projects for Fdroid\Ludo Party\src\main\AndroidManifest.xml:17:44-78
	android:name
		ADDED from D:\Unity Projects\Android projects for Fdroid\Ludo Party\src\main\AndroidManifest.xml:17:16-43
uses-feature#0x00020000
ADDED from D:\Unity Projects\Android projects for Fdroid\Ludo Party\src\main\AndroidManifest.xml:19:3-52
	android:glEsVersion
		ADDED from D:\Unity Projects\Android projects for Fdroid\Ludo Party\src\main\AndroidManifest.xml:19:17-49
uses-permission#android.permission.INTERNET
ADDED from D:\Unity Projects\Android projects for Fdroid\Ludo Party\src\main\AndroidManifest.xml:20:3-65
	android:name
		ADDED from D:\Unity Projects\Android projects for Fdroid\Ludo Party\src\main\AndroidManifest.xml:20:20-62
uses-permission#android.permission.CHANGE_WIFI_MULTICAST_STATE
ADDED from D:\Unity Projects\Android projects for Fdroid\Ludo Party\src\main\AndroidManifest.xml:21:3-84
	android:name
		ADDED from D:\Unity Projects\Android projects for Fdroid\Ludo Party\src\main\AndroidManifest.xml:21:20-81
uses-feature#android.hardware.touchscreen
ADDED from D:\Unity Projects\Android projects for Fdroid\Ludo Party\src\main\AndroidManifest.xml:22:3-88
	android:required
		ADDED from D:\Unity Projects\Android projects for Fdroid\Ludo Party\src\main\AndroidManifest.xml:22:61-85
	android:name
		ADDED from D:\Unity Projects\Android projects for Fdroid\Ludo Party\src\main\AndroidManifest.xml:22:17-60
uses-feature#android.hardware.touchscreen.multitouch
ADDED from D:\Unity Projects\Android projects for Fdroid\Ludo Party\src\main\AndroidManifest.xml:23:3-99
	android:required
		ADDED from D:\Unity Projects\Android projects for Fdroid\Ludo Party\src\main\AndroidManifest.xml:23:72-96
	android:name
		ADDED from D:\Unity Projects\Android projects for Fdroid\Ludo Party\src\main\AndroidManifest.xml:23:17-71
uses-feature#android.hardware.touchscreen.multitouch.distinct
ADDED from D:\Unity Projects\Android projects for Fdroid\Ludo Party\src\main\AndroidManifest.xml:24:3-108
	android:required
		ADDED from D:\Unity Projects\Android projects for Fdroid\Ludo Party\src\main\AndroidManifest.xml:24:81-105
	android:name
		ADDED from D:\Unity Projects\Android projects for Fdroid\Ludo Party\src\main\AndroidManifest.xml:24:17-80
uses-sdk
INJECTED from D:\Unity Projects\Android projects for Fdroid\Ludo Party\src\main\AndroidManifest.xml reason: use-sdk injection requested
INJECTED from D:\Unity Projects\Android projects for Fdroid\Ludo Party\src\main\AndroidManifest.xml
INJECTED from D:\Unity Projects\Android projects for Fdroid\Ludo Party\src\main\AndroidManifest.xml
MERGED from [com.google.games:gpgs-plugin-support:0.9.62] C:\Users\pc\.gradle\caches\transforms-3\432b0ec1f18b32bfd31861d3e8b2dd0d\transformed\gpgs-plugin-support-0.9.62\AndroidManifest.xml:7:5-44
MERGED from [com.google.games:gpgs-plugin-support:0.9.62] C:\Users\pc\.gradle\caches\transforms-3\432b0ec1f18b32bfd31861d3e8b2dd0d\transformed\gpgs-plugin-support-0.9.62\AndroidManifest.xml:7:5-44
MERGED from [:billing-3.0.3:] C:\Users\pc\.gradle\caches\transforms-3\219ea133ce10f99edc54b4d59389b9cb\transformed\billing-3.0.3\AndroidManifest.xml:6:5-8:41
MERGED from [:billing-3.0.3:] C:\Users\pc\.gradle\caches\transforms-3\219ea133ce10f99edc54b4d59389b9cb\transformed\billing-3.0.3\AndroidManifest.xml:6:5-8:41
MERGED from [:common:] C:\Users\pc\.gradle\caches\transforms-3\3148d98665ae6d9668eb89e5cf224da5\transformed\common\AndroidManifest.xml:7:5-43
MERGED from [:common:] C:\Users\pc\.gradle\caches\transforms-3\3148d98665ae6d9668eb89e5cf224da5\transformed\common\AndroidManifest.xml:7:5-43
MERGED from [:GooglePlayGamesManifest.plugin] D:\Unity Projects\Android projects for Fdroid\Ludo Party\GooglePlayGamesManifest.plugin\build\intermediates\merged_manifest\debug\AndroidManifest.xml:11:5-13:41
MERGED from [:GooglePlayGamesManifest.plugin] D:\Unity Projects\Android projects for Fdroid\Ludo Party\GooglePlayGamesManifest.plugin\build\intermediates\merged_manifest\debug\AndroidManifest.xml:11:5-13:41
MERGED from [com.google.android.gms:play-services-games:16.0.0] C:\Users\pc\.gradle\caches\transforms-3\91e87fe31949ab73bb847eaa92995a14\transformed\play-services-games-16.0.0\AndroidManifest.xml:20:5-44
MERGED from [com.google.android.gms:play-services-games:16.0.0] C:\Users\pc\.gradle\caches\transforms-3\91e87fe31949ab73bb847eaa92995a14\transformed\play-services-games-16.0.0\AndroidManifest.xml:20:5-44
MERGED from [com.google.android.gms:play-services-auth:16.0.1] C:\Users\pc\.gradle\caches\transforms-3\c175320899735e3330c5f4b73eaf697d\transformed\play-services-auth-16.0.1\AndroidManifest.xml:20:5-44
MERGED from [com.google.android.gms:play-services-auth:16.0.1] C:\Users\pc\.gradle\caches\transforms-3\c175320899735e3330c5f4b73eaf697d\transformed\play-services-auth-16.0.1\AndroidManifest.xml:20:5-44
MERGED from [com.google.android.gms:play-services-nearby:16.0.0] C:\Users\pc\.gradle\caches\transforms-3\c417638a9bfe9291233fe3be366fffad\transformed\play-services-nearby-16.0.0\AndroidManifest.xml:5:5-44
MERGED from [com.google.android.gms:play-services-nearby:16.0.0] C:\Users\pc\.gradle\caches\transforms-3\c417638a9bfe9291233fe3be366fffad\transformed\play-services-nearby-16.0.0\AndroidManifest.xml:5:5-44
MERGED from [com.google.android.gms:play-services-drive:16.0.0] C:\Users\pc\.gradle\caches\transforms-3\86a2d1de743a8f92991b9dcea95ecbf1\transformed\play-services-drive-16.0.0\AndroidManifest.xml:20:5-44
MERGED from [com.google.android.gms:play-services-drive:16.0.0] C:\Users\pc\.gradle\caches\transforms-3\86a2d1de743a8f92991b9dcea95ecbf1\transformed\play-services-drive-16.0.0\AndroidManifest.xml:20:5-44
MERGED from [com.google.android.gms:play-services-auth-api-phone:16.0.0] C:\Users\pc\.gradle\caches\transforms-3\4d5ee96b810101f617bc8f4608f3408e\transformed\play-services-auth-api-phone-16.0.0\AndroidManifest.xml:5:5-44
MERGED from [com.google.android.gms:play-services-auth-api-phone:16.0.0] C:\Users\pc\.gradle\caches\transforms-3\4d5ee96b810101f617bc8f4608f3408e\transformed\play-services-auth-api-phone-16.0.0\AndroidManifest.xml:5:5-44
MERGED from [com.google.android.gms:play-services-auth-base:16.0.0] C:\Users\pc\.gradle\caches\transforms-3\f63e8990d47166a20050578f0f58fa8b\transformed\play-services-auth-base-16.0.0\AndroidManifest.xml:5:5-44
MERGED from [com.google.android.gms:play-services-auth-base:16.0.0] C:\Users\pc\.gradle\caches\transforms-3\f63e8990d47166a20050578f0f58fa8b\transformed\play-services-auth-base-16.0.0\AndroidManifest.xml:5:5-44
MERGED from [com.google.android.gms:play-services-base:16.0.1] C:\Users\pc\.gradle\caches\transforms-3\59076c976622b991b8501737f8258b8b\transformed\play-services-base-16.0.1\AndroidManifest.xml:20:5-44
MERGED from [com.google.android.gms:play-services-base:16.0.1] C:\Users\pc\.gradle\caches\transforms-3\59076c976622b991b8501737f8258b8b\transformed\play-services-base-16.0.1\AndroidManifest.xml:20:5-44
MERGED from [com.google.android.gms:play-services-tasks:16.0.1] C:\Users\pc\.gradle\caches\transforms-3\bc200d5caf8ffdead59faf10abd23d5f\transformed\play-services-tasks-16.0.1\AndroidManifest.xml:5:5-44
MERGED from [com.google.android.gms:play-services-tasks:16.0.1] C:\Users\pc\.gradle\caches\transforms-3\bc200d5caf8ffdead59faf10abd23d5f\transformed\play-services-tasks-16.0.1\AndroidManifest.xml:5:5-44
MERGED from [com.google.android.gms:play-services-basement:16.0.1] C:\Users\pc\.gradle\caches\transforms-3\e7f44bba6e2eb6ee24399260862692e5\transformed\play-services-basement-16.0.1\AndroidManifest.xml:20:5-44
MERGED from [com.google.android.gms:play-services-basement:16.0.1] C:\Users\pc\.gradle\caches\transforms-3\e7f44bba6e2eb6ee24399260862692e5\transformed\play-services-basement-16.0.1\AndroidManifest.xml:20:5-44
MERGED from [com.android.support:support-v4:26.0.0] C:\Users\pc\.gradle\caches\transforms-3\dba88b0265daee03f7716c299f9ec58e\transformed\support-v4-26.0.0\AndroidManifest.xml:21:5-23:54
MERGED from [com.android.support:support-v4:26.0.0] C:\Users\pc\.gradle\caches\transforms-3\dba88b0265daee03f7716c299f9ec58e\transformed\support-v4-26.0.0\AndroidManifest.xml:21:5-23:54
MERGED from [com.android.support:support-media-compat:26.0.0] C:\Users\pc\.gradle\caches\transforms-3\7a3b5fa76290974c098427378edf64db\transformed\support-media-compat-26.0.0\AndroidManifest.xml:21:5-23:63
MERGED from [com.android.support:support-media-compat:26.0.0] C:\Users\pc\.gradle\caches\transforms-3\7a3b5fa76290974c098427378edf64db\transformed\support-media-compat-26.0.0\AndroidManifest.xml:21:5-23:63
MERGED from [com.android.support:support-fragment:26.0.0] C:\Users\pc\.gradle\caches\transforms-3\5dde7106b6106a92ced0f5164778db24\transformed\support-fragment-26.0.0\AndroidManifest.xml:21:5-23:60
MERGED from [com.android.support:support-fragment:26.0.0] C:\Users\pc\.gradle\caches\transforms-3\5dde7106b6106a92ced0f5164778db24\transformed\support-fragment-26.0.0\AndroidManifest.xml:21:5-23:60
MERGED from [com.android.support:support-core-utils:26.0.0] C:\Users\pc\.gradle\caches\transforms-3\648ad88983f8a2f1bf4d4df53bbd9e24\transformed\support-core-utils-26.0.0\AndroidManifest.xml:21:5-23:61
MERGED from [com.android.support:support-core-utils:26.0.0] C:\Users\pc\.gradle\caches\transforms-3\648ad88983f8a2f1bf4d4df53bbd9e24\transformed\support-core-utils-26.0.0\AndroidManifest.xml:21:5-23:61
MERGED from [com.android.support:support-core-ui:26.0.0] C:\Users\pc\.gradle\caches\transforms-3\569b98667c7cbe0f6548f026b015c30c\transformed\support-core-ui-26.0.0\AndroidManifest.xml:21:5-23:58
MERGED from [com.android.support:support-core-ui:26.0.0] C:\Users\pc\.gradle\caches\transforms-3\569b98667c7cbe0f6548f026b015c30c\transformed\support-core-ui-26.0.0\AndroidManifest.xml:21:5-23:58
MERGED from [com.android.support:support-compat:26.0.0] C:\Users\pc\.gradle\caches\transforms-3\b0e888e6a89aea7d73fa7dcacb5f7ae6\transformed\support-compat-26.0.0\AndroidManifest.xml:21:5-23:58
MERGED from [com.android.support:support-compat:26.0.0] C:\Users\pc\.gradle\caches\transforms-3\b0e888e6a89aea7d73fa7dcacb5f7ae6\transformed\support-compat-26.0.0\AndroidManifest.xml:21:5-23:58
INJECTED from D:\Unity Projects\Android projects for Fdroid\Ludo Party\src\main\AndroidManifest.xml
INJECTED from D:\Unity Projects\Android projects for Fdroid\Ludo Party\src\main\AndroidManifest.xml
	tools:overrideLibrary
		ADDED from [com.android.support:support-v4:26.0.0] C:\Users\pc\.gradle\caches\transforms-3\dba88b0265daee03f7716c299f9ec58e\transformed\support-v4-26.0.0\AndroidManifest.xml:23:9-51
	android:targetSdkVersion
		INJECTED from D:\Unity Projects\Android projects for Fdroid\Ludo Party\src\main\AndroidManifest.xml
		ADDED from D:\Unity Projects\Android projects for Fdroid\Ludo Party\src\main\AndroidManifest.xml
		INJECTED from D:\Unity Projects\Android projects for Fdroid\Ludo Party\src\main\AndroidManifest.xml
	android:minSdkVersion
		INJECTED from D:\Unity Projects\Android projects for Fdroid\Ludo Party\src\main\AndroidManifest.xml
		ADDED from D:\Unity Projects\Android projects for Fdroid\Ludo Party\src\main\AndroidManifest.xml
		INJECTED from D:\Unity Projects\Android projects for Fdroid\Ludo Party\src\main\AndroidManifest.xml
uses-permission#com.android.vending.BILLING
ADDED from [:billing-3.0.3:] C:\Users\pc\.gradle\caches\transforms-3\219ea133ce10f99edc54b4d59389b9cb\transformed\billing-3.0.3\AndroidManifest.xml:10:5-67
	android:name
		ADDED from [:billing-3.0.3:] C:\Users\pc\.gradle\caches\transforms-3\219ea133ce10f99edc54b4d59389b9cb\transformed\billing-3.0.3\AndroidManifest.xml:10:22-64
meta-data#com.google.android.play.billingclient.version
ADDED from [:billing-3.0.3:] C:\Users\pc\.gradle\caches\transforms-3\219ea133ce10f99edc54b4d59389b9cb\transformed\billing-3.0.3\AndroidManifest.xml:13:9-15:37
	android:value
		ADDED from [:billing-3.0.3:] C:\Users\pc\.gradle\caches\transforms-3\219ea133ce10f99edc54b4d59389b9cb\transformed\billing-3.0.3\AndroidManifest.xml:15:13-34
	android:name
		ADDED from [:billing-3.0.3:] C:\Users\pc\.gradle\caches\transforms-3\219ea133ce10f99edc54b4d59389b9cb\transformed\billing-3.0.3\AndroidManifest.xml:14:13-73
activity#com.android.billingclient.api.ProxyBillingActivity
ADDED from [:billing-3.0.3:] C:\Users\pc\.gradle\caches\transforms-3\219ea133ce10f99edc54b4d59389b9cb\transformed\billing-3.0.3\AndroidManifest.xml:17:9-21:75
	android:exported
		ADDED from [:billing-3.0.3:] C:\Users\pc\.gradle\caches\transforms-3\219ea133ce10f99edc54b4d59389b9cb\transformed\billing-3.0.3\AndroidManifest.xml:20:13-37
	android:configChanges
		ADDED from [:billing-3.0.3:] C:\Users\pc\.gradle\caches\transforms-3\219ea133ce10f99edc54b4d59389b9cb\transformed\billing-3.0.3\AndroidManifest.xml:19:13-96
	android:theme
		ADDED from [:billing-3.0.3:] C:\Users\pc\.gradle\caches\transforms-3\219ea133ce10f99edc54b4d59389b9cb\transformed\billing-3.0.3\AndroidManifest.xml:21:13-72
	android:name
		ADDED from [:billing-3.0.3:] C:\Users\pc\.gradle\caches\transforms-3\219ea133ce10f99edc54b4d59389b9cb\transformed\billing-3.0.3\AndroidManifest.xml:18:13-78
meta-data#com.google.android.gms.games.APP_ID
ADDED from [:GooglePlayGamesManifest.plugin] D:\Unity Projects\Android projects for Fdroid\Ludo Party\GooglePlayGamesManifest.plugin\build\intermediates\merged_manifest\debug\AndroidManifest.xml:18:9-20:49
	android:value
		ADDED from [:GooglePlayGamesManifest.plugin] D:\Unity Projects\Android projects for Fdroid\Ludo Party\GooglePlayGamesManifest.plugin\build\intermediates\merged_manifest\debug\AndroidManifest.xml:20:13-46
	android:name
		ADDED from [:GooglePlayGamesManifest.plugin] D:\Unity Projects\Android projects for Fdroid\Ludo Party\GooglePlayGamesManifest.plugin\build\intermediates\merged_manifest\debug\AndroidManifest.xml:19:13-63
meta-data#com.google.android.gms.games.unityVersion
ADDED from [:GooglePlayGamesManifest.plugin] D:\Unity Projects\Android projects for Fdroid\Ludo Party\GooglePlayGamesManifest.plugin\build\intermediates\merged_manifest\debug\AndroidManifest.xml:23:9-25:43
	android:value
		ADDED from [:GooglePlayGamesManifest.plugin] D:\Unity Projects\Android projects for Fdroid\Ludo Party\GooglePlayGamesManifest.plugin\build\intermediates\merged_manifest\debug\AndroidManifest.xml:25:13-40
	android:name
		ADDED from [:GooglePlayGamesManifest.plugin] D:\Unity Projects\Android projects for Fdroid\Ludo Party\GooglePlayGamesManifest.plugin\build\intermediates\merged_manifest\debug\AndroidManifest.xml:24:13-69
activity#com.google.games.bridge.NativeBridgeActivity
ADDED from [:GooglePlayGamesManifest.plugin] D:\Unity Projects\Android projects for Fdroid\Ludo Party\GooglePlayGamesManifest.plugin\build\intermediates\merged_manifest\debug\AndroidManifest.xml:27:9-29:86
	android:theme
		ADDED from [:GooglePlayGamesManifest.plugin] D:\Unity Projects\Android projects for Fdroid\Ludo Party\GooglePlayGamesManifest.plugin\build\intermediates\merged_manifest\debug\AndroidManifest.xml:29:13-83
	android:name
		ADDED from [:GooglePlayGamesManifest.plugin] D:\Unity Projects\Android projects for Fdroid\Ludo Party\GooglePlayGamesManifest.plugin\build\intermediates\merged_manifest\debug\AndroidManifest.xml:28:13-72
activity#com.google.android.gms.auth.api.signin.internal.SignInHubActivity
ADDED from [com.google.android.gms:play-services-auth:16.0.1] C:\Users\pc\.gradle\caches\transforms-3\c175320899735e3330c5f4b73eaf697d\transformed\play-services-auth-16.0.1\AndroidManifest.xml:23:9-27:75
	android:excludeFromRecents
		ADDED from [com.google.android.gms:play-services-auth:16.0.1] C:\Users\pc\.gradle\caches\transforms-3\c175320899735e3330c5f4b73eaf697d\transformed\play-services-auth-16.0.1\AndroidManifest.xml:25:13-46
	android:exported
		ADDED from [com.google.android.gms:play-services-auth:16.0.1] C:\Users\pc\.gradle\caches\transforms-3\c175320899735e3330c5f4b73eaf697d\transformed\play-services-auth-16.0.1\AndroidManifest.xml:26:13-37
	android:theme
		ADDED from [com.google.android.gms:play-services-auth:16.0.1] C:\Users\pc\.gradle\caches\transforms-3\c175320899735e3330c5f4b73eaf697d\transformed\play-services-auth-16.0.1\AndroidManifest.xml:27:13-72
	android:name
		ADDED from [com.google.android.gms:play-services-auth:16.0.1] C:\Users\pc\.gradle\caches\transforms-3\c175320899735e3330c5f4b73eaf697d\transformed\play-services-auth-16.0.1\AndroidManifest.xml:24:13-93
service#com.google.android.gms.auth.api.signin.RevocationBoundService
ADDED from [com.google.android.gms:play-services-auth:16.0.1] C:\Users\pc\.gradle\caches\transforms-3\c175320899735e3330c5f4b73eaf697d\transformed\play-services-auth-16.0.1\AndroidManifest.xml:33:9-36:110
	android:exported
		ADDED from [com.google.android.gms:play-services-auth:16.0.1] C:\Users\pc\.gradle\caches\transforms-3\c175320899735e3330c5f4b73eaf697d\transformed\play-services-auth-16.0.1\AndroidManifest.xml:35:13-36
	android:permission
		ADDED from [com.google.android.gms:play-services-auth:16.0.1] C:\Users\pc\.gradle\caches\transforms-3\c175320899735e3330c5f4b73eaf697d\transformed\play-services-auth-16.0.1\AndroidManifest.xml:36:13-107
	android:name
		ADDED from [com.google.android.gms:play-services-auth:16.0.1] C:\Users\pc\.gradle\caches\transforms-3\c175320899735e3330c5f4b73eaf697d\transformed\play-services-auth-16.0.1\AndroidManifest.xml:34:13-89
uses-permission#android.permission.ACCESS_NETWORK_STATE
ADDED from [com.google.android.gms:play-services-nearby:16.0.0] C:\Users\pc\.gradle\caches\transforms-3\c417638a9bfe9291233fe3be366fffad\transformed\play-services-nearby-16.0.0\AndroidManifest.xml:7:5-79
	android:name
		ADDED from [com.google.android.gms:play-services-nearby:16.0.0] C:\Users\pc\.gradle\caches\transforms-3\c417638a9bfe9291233fe3be366fffad\transformed\play-services-nearby-16.0.0\AndroidManifest.xml:7:22-76
activity#com.google.android.gms.common.api.GoogleApiActivity
ADDED from [com.google.android.gms:play-services-base:16.0.1] C:\Users\pc\.gradle\caches\transforms-3\59076c976622b991b8501737f8258b8b\transformed\play-services-base-16.0.1\AndroidManifest.xml:23:9-26:75
	android:exported
		ADDED from [com.google.android.gms:play-services-base:16.0.1] C:\Users\pc\.gradle\caches\transforms-3\59076c976622b991b8501737f8258b8b\transformed\play-services-base-16.0.1\AndroidManifest.xml:25:13-37
	android:theme
		ADDED from [com.google.android.gms:play-services-base:16.0.1] C:\Users\pc\.gradle\caches\transforms-3\59076c976622b991b8501737f8258b8b\transformed\play-services-base-16.0.1\AndroidManifest.xml:26:13-72
	android:name
		ADDED from [com.google.android.gms:play-services-base:16.0.1] C:\Users\pc\.gradle\caches\transforms-3\59076c976622b991b8501737f8258b8b\transformed\play-services-base-16.0.1\AndroidManifest.xml:24:13-79
meta-data#com.google.android.gms.version
ADDED from [com.google.android.gms:play-services-basement:16.0.1] C:\Users\pc\.gradle\caches\transforms-3\e7f44bba6e2eb6ee24399260862692e5\transformed\play-services-basement-16.0.1\AndroidManifest.xml:23:9-25:69
	android:value
		ADDED from [com.google.android.gms:play-services-basement:16.0.1] C:\Users\pc\.gradle\caches\transforms-3\e7f44bba6e2eb6ee24399260862692e5\transformed\play-services-basement-16.0.1\AndroidManifest.xml:25:13-66
	android:name
		ADDED from [com.google.android.gms:play-services-basement:16.0.1] C:\Users\pc\.gradle\caches\transforms-3\e7f44bba6e2eb6ee24399260862692e5\transformed\play-services-basement-16.0.1\AndroidManifest.xml:24:13-58
meta-data#android.support.VERSION
ADDED from [com.android.support:support-v4:26.0.0] C:\Users\pc\.gradle\caches\transforms-3\dba88b0265daee03f7716c299f9ec58e\transformed\support-v4-26.0.0\AndroidManifest.xml:26:9-28:38
MERGED from [com.android.support:support-media-compat:26.0.0] C:\Users\pc\.gradle\caches\transforms-3\7a3b5fa76290974c098427378edf64db\transformed\support-media-compat-26.0.0\AndroidManifest.xml:26:9-28:38
MERGED from [com.android.support:support-media-compat:26.0.0] C:\Users\pc\.gradle\caches\transforms-3\7a3b5fa76290974c098427378edf64db\transformed\support-media-compat-26.0.0\AndroidManifest.xml:26:9-28:38
MERGED from [com.android.support:support-fragment:26.0.0] C:\Users\pc\.gradle\caches\transforms-3\5dde7106b6106a92ced0f5164778db24\transformed\support-fragment-26.0.0\AndroidManifest.xml:26:9-28:38
MERGED from [com.android.support:support-fragment:26.0.0] C:\Users\pc\.gradle\caches\transforms-3\5dde7106b6106a92ced0f5164778db24\transformed\support-fragment-26.0.0\AndroidManifest.xml:26:9-28:38
MERGED from [com.android.support:support-core-utils:26.0.0] C:\Users\pc\.gradle\caches\transforms-3\648ad88983f8a2f1bf4d4df53bbd9e24\transformed\support-core-utils-26.0.0\AndroidManifest.xml:26:9-28:38
MERGED from [com.android.support:support-core-utils:26.0.0] C:\Users\pc\.gradle\caches\transforms-3\648ad88983f8a2f1bf4d4df53bbd9e24\transformed\support-core-utils-26.0.0\AndroidManifest.xml:26:9-28:38
MERGED from [com.android.support:support-core-ui:26.0.0] C:\Users\pc\.gradle\caches\transforms-3\569b98667c7cbe0f6548f026b015c30c\transformed\support-core-ui-26.0.0\AndroidManifest.xml:26:9-28:38
MERGED from [com.android.support:support-core-ui:26.0.0] C:\Users\pc\.gradle\caches\transforms-3\569b98667c7cbe0f6548f026b015c30c\transformed\support-core-ui-26.0.0\AndroidManifest.xml:26:9-28:38
MERGED from [com.android.support:support-compat:26.0.0] C:\Users\pc\.gradle\caches\transforms-3\b0e888e6a89aea7d73fa7dcacb5f7ae6\transformed\support-compat-26.0.0\AndroidManifest.xml:26:9-28:38
MERGED from [com.android.support:support-compat:26.0.0] C:\Users\pc\.gradle\caches\transforms-3\b0e888e6a89aea7d73fa7dcacb5f7ae6\transformed\support-compat-26.0.0\AndroidManifest.xml:26:9-28:38
	android:value
		ADDED from [com.android.support:support-v4:26.0.0] C:\Users\pc\.gradle\caches\transforms-3\dba88b0265daee03f7716c299f9ec58e\transformed\support-v4-26.0.0\AndroidManifest.xml:28:13-35
	android:name
		ADDED from [com.android.support:support-v4:26.0.0] C:\Users\pc\.gradle\caches\transforms-3\dba88b0265daee03f7716c299f9ec58e\transformed\support-v4-26.0.0\AndroidManifest.xml:27:13-51
